{
    "port": 8000,
    "host": "0.0.0.0",

    "serve_static_files": false,
    "webpack_dev_server": false,

    "database": {
        "username": "postgresuser",
        "database": "appdb",
        "password": "mysupersecretpassword",
        "host": "db",
        "port": 5432,
        "dialect": "postgres"
    },

    "loggers": {
        "default": [
            {
                "transport": "Console",
                "options": {
                    "level": "info",
                    "timestamp": "true"
                }
            }
        ],
        "sql": [
            {
                "transport": "Console",
                "options": {
                    "level": "info",
                    "timestamp": "true"
                }
            }
        ]
    }
}